<?xml version="1.0" encoding="UTF-8" standalone="no"?>
<!-- Created with Inkscape (http://www.inkscape.org/) -->

<svg
   xmlns:dc="http://purl.org/dc/elements/1.1/"
   xmlns:cc="http://creativecommons.org/ns#"
   xmlns:rdf="http://www.w3.org/1999/02/22-rdf-syntax-ns#"
   xmlns:svg="http://www.w3.org/2000/svg"
   xmlns="http://www.w3.org/2000/svg"
   xmlns:xlink="http://www.w3.org/1999/xlink"
   xmlns:sodipodi="http://sodipodi.sourceforge.net/DTD/sodipodi-0.dtd"
   xmlns:inkscape="http://www.inkscape.org/namespaces/inkscape"
   version="1.0"
   width="219.12462"
   height="256.67032"
   id="svg2780"
   inkscape:version="0.47 r22583"
   sodipodi:docname="logo1.svg">
  <sodipodi:namedview
     pagecolor="#ffffff"
     bordercolor="#666666"
     borderopacity="1"
     objecttolerance="10"
     gridtolerance="10"
     guidetolerance="10"
     inkscape:pageopacity="0"
     inkscape:pageshadow="2"
     inkscape:window-width="1680"
     inkscape:window-height="974"
     id="namedview2836"
     showgrid="false"
     inkscape:zoom="1.3003233"
     inkscape:cx="40.772489"
     inkscape:cy="128.33516"
     inkscape:window-x="0"
     inkscape:window-y="25"
     inkscape:window-maximized="1"
     inkscape:current-layer="svg2780" />
  <defs
     id="defs2782">
    <inkscape:perspective
       sodipodi:type="inkscape:persp3d"
       inkscape:vp_x="0 : 128.33516 : 1"
       inkscape:vp_y="0 : 1000 : 0"
       inkscape:vp_z="219.12462 : 128.33516 : 1"
       inkscape:persp3d-origin="109.56231 : 85.556773 : 1"
       id="perspective2838" />
    <inkscape:perspective
       id="perspective3029"
       inkscape:persp3d-origin="0.5 : 0.33333333 : 1"
       inkscape:vp_z="1 : 0.5 : 1"
       inkscape:vp_y="0 : 1000 : 0"
       inkscape:vp_x="0 : 0.5 : 1"
       sodipodi:type="inkscape:persp3d" />
    <linearGradient
       id="linearGradient3761">
      <stop
         style="stop-color:#cdcdcd;stop-opacity:1;"
         offset="0"
         id="stop3763" />
      <stop
         style="stop-color:#7e7e7e;stop-opacity:1;"
         offset="1"
         id="stop3765" />
    </linearGradient>
    <linearGradient
       inkscape:collect="always"
       xlink:href="#linearGradient3769"
       id="linearGradient3775"
       x1="755.12415"
       y1="399.59985"
       x2="755.21686"
       y2="405.14407"
       gradientUnits="userSpaceOnUse" />
    <linearGradient
       id="linearGradient3769">
      <stop
         style="stop-color:#ffffff;stop-opacity:1;"
         offset="0"
         id="stop3771" />
      <stop
         style="stop-color:#101010;stop-opacity:1;"
         offset="1"
         id="stop3773" />
    </linearGradient>
    <inkscape:perspective
       id="perspective3141"
       inkscape:persp3d-origin="0.5 : 0.33333333 : 1"
       inkscape:vp_z="1 : 0.5 : 1"
       inkscape:vp_y="0 : 1000 : 0"
       inkscape:vp_x="0 : 0.5 : 1"
       sodipodi:type="inkscape:persp3d" />
    <linearGradient
       id="linearGradient3761-1">
      <stop
         style="stop-color:#cdcdcd;stop-opacity:1;"
         offset="0"
         id="stop3763-8" />
      <stop
         style="stop-color:#7e7e7e;stop-opacity:1;"
         offset="1"
         id="stop3765-7" />
    </linearGradient>
    <linearGradient
       y2="405.14407"
       x2="755.21686"
       y1="399.59985"
       x1="755.12415"
       gradientUnits="userSpaceOnUse"
       id="linearGradient3044-1"
       xlink:href="#linearGradient3769-4"
       inkscape:collect="always" />
    <linearGradient
       id="linearGradient3769-4">
      <stop
         style="stop-color:#ffffff;stop-opacity:1;"
         offset="0"
         id="stop3771-8" />
      <stop
         style="stop-color:#101010;stop-opacity:1;"
         offset="1"
         id="stop3773-3" />
    </linearGradient>
    <linearGradient
       inkscape:collect="always"
       xlink:href="#linearGradient3761-1"
       id="linearGradient3193"
       gradientUnits="userSpaceOnUse"
       x1="748.42609"
       y1="388.27856"
       x2="754.3587"
       y2="418.77188" />
    <linearGradient
       inkscape:collect="always"
       xlink:href="#linearGradient3769-4"
       id="linearGradient3195"
       gradientUnits="userSpaceOnUse"
       x1="755.12415"
       y1="399.59985"
       x2="755.21686"
       y2="405.14407" />
    <inkscape:perspective
       id="perspective3444"
       inkscape:persp3d-origin="0.5 : 0.33333333 : 1"
       inkscape:vp_z="1 : 0.5 : 1"
       inkscape:vp_y="0 : 1000 : 0"
       inkscape:vp_x="0 : 0.5 : 1"
       sodipodi:type="inkscape:persp3d" />
    <linearGradient
       gradientTransform="matrix(1.632005,0,0,2.436073,-0.0513035,2.009678)"
       gradientUnits="userSpaceOnUse"
       id="linearGradient3084"
       x1="35.995708"
       x2="35.995708"
       xlink:href="#linearGradient2780"
       y1="1.624638"
       y2="11.710631" />
    <linearGradient
       id="linearGradient2780">
      <stop
         id="stop2782"
         offset="0.00000000"
         style="stop-color:#ffffff;stop-opacity:1.0000000;" />
      <stop
         id="stop2784"
         offset="1.0000000"
         style="stop-color:#ffffff;stop-opacity:0.00000000;" />
    </linearGradient>
    <linearGradient
       gradientTransform="matrix(1.63752,0,0,2.47415,-0.0513035,-0.012826)"
       gradientUnits="userSpaceOnUse"
       id="linearGradient2951"
       x1="38.362892"
       x2="39.723621"
       xlink:href="#linearGradient2780"
       y1="11.170151"
       y2="6.0918369" />
    <linearGradient
       id="linearGradient3453">
      <stop
         id="stop3455"
         offset="0.00000000"
         style="stop-color:#ffffff;stop-opacity:1.0000000;" />
      <stop
         id="stop3457"
         offset="1.0000000"
         style="stop-color:#ffffff;stop-opacity:0.00000000;" />
    </linearGradient>
    <radialGradient
       cx="21.595108"
       cy="8.9813547"
       fx="21.595108"
       fy="8.9813547"
       gradientTransform="matrix(2.366562,0,0,1.726511,-0.404355,-0.012826)"
       gradientUnits="userSpaceOnUse"
       id="radialGradient2869"
       r="6.0678878"
       xlink:href="#linearGradient2834" />
    <linearGradient
       id="linearGradient2834">
      <stop
         id="stop2836"
         offset="0.00000000"
         style="stop-color:#ffe19c;stop-opacity:1.0000000;" />
      <stop
         id="stop2838"
         offset="1.0000000"
         style="stop-color:#b79e4f;stop-opacity:0.00000000;" />
    </linearGradient>
    <radialGradient
       cx="21.595108"
       cy="8.9813547"
       fx="21.595108"
       fy="8.9813547"
       gradientTransform="matrix(-2.366562,0,0,1.726511,129.1226,-0.112925)"
       gradientUnits="userSpaceOnUse"
       id="radialGradient2873"
       r="6.0678878"
       xlink:href="#linearGradient2834" />
    <linearGradient
       id="linearGradient3464">
      <stop
         id="stop3466"
         offset="0.00000000"
         style="stop-color:#ffe19c;stop-opacity:1.0000000;" />
      <stop
         id="stop3468"
         offset="1.0000000"
         style="stop-color:#b79e4f;stop-opacity:0.00000000;" />
    </linearGradient>
    <linearGradient
       gradientTransform="matrix(1.632005,0,0,2.482509,-0.0513035,-0.012826)"
       gradientUnits="userSpaceOnUse"
       id="linearGradient2943"
       x1="38.781849"
       x2="38.781849"
       xlink:href="#linearGradient2780"
       y1="9.5745525"
       y2="7.5863166" />
    <linearGradient
       id="linearGradient3471">
      <stop
         id="stop3473"
         offset="0.00000000"
         style="stop-color:#ffffff;stop-opacity:1.0000000;" />
      <stop
         id="stop3475"
         offset="1.0000000"
         style="stop-color:#ffffff;stop-opacity:0.00000000;" />
    </linearGradient>
    <linearGradient
       gradientTransform="matrix(2.210222,0,0,1.964283,-1.515862,-2.171324)"
       gradientUnits="userSpaceOnUse"
       id="linearGradient2935"
       x1="33.184048"
       x2="33.184048"
       xlink:href="#linearGradient2780"
       y1="24.384579"
       y2="-13.170087" />
    <linearGradient
       id="linearGradient3478">
      <stop
         id="stop3480"
         offset="0.00000000"
         style="stop-color:#ffffff;stop-opacity:1.0000000;" />
      <stop
         id="stop3482"
         offset="1.0000000"
         style="stop-color:#ffffff;stop-opacity:0.00000000;" />
    </linearGradient>
    <linearGradient
       gradientTransform="matrix(2.161083,0,0,1.804543,-0.0513035,2.267068)"
       gradientUnits="userSpaceOnUse"
       id="linearGradient2895"
       x1="33.184048"
       x2="33.184048"
       xlink:href="#linearGradient2780"
       y1="24.384579"
       y2="-13.170087" />
    <linearGradient
       id="linearGradient3485">
      <stop
         id="stop3487"
         offset="0.00000000"
         style="stop-color:#ffffff;stop-opacity:1.0000000;" />
      <stop
         id="stop3489"
         offset="1.0000000"
         style="stop-color:#ffffff;stop-opacity:0.00000000;" />
    </linearGradient>
    <radialGradient
       cx="21.595108"
       cy="8.9813547"
       fx="21.595108"
       fy="8.9813547"
       gradientTransform="matrix(3.085042,0,0,2.052895,-15.9848,-3.14928)"
       gradientUnits="userSpaceOnUse"
       id="radialGradient2955"
       r="6.0678878"
       xlink:href="#linearGradient2834" />
    <linearGradient
       id="linearGradient3492">
      <stop
         id="stop3494"
         offset="0.00000000"
         style="stop-color:#ffe19c;stop-opacity:1.0000000;" />
      <stop
         id="stop3496"
         offset="1.0000000"
         style="stop-color:#b79e4f;stop-opacity:0.00000000;" />
    </linearGradient>
    <radialGradient
       cx="21.595108"
       cy="8.9813547"
       fx="21.595108"
       fy="8.9813547"
       gradientTransform="matrix(-2.846279,0,0,2.087943,139.5254,-3.586178)"
       gradientUnits="userSpaceOnUse"
       id="radialGradient2959"
       r="6.0678878"
       xlink:href="#linearGradient2834" />
    <linearGradient
       id="linearGradient3499">
      <stop
         id="stop3501"
         offset="0.00000000"
         style="stop-color:#ffe19c;stop-opacity:1.0000000;" />
      <stop
         id="stop3503"
         offset="1.0000000"
         style="stop-color:#b79e4f;stop-opacity:0.00000000;" />
    </linearGradient>
    <radialGradient
       cx="8.0178375"
       cy="231.98276"
       fx="8.0178375"
       fy="231.98276"
       gradientTransform="scale(3.741657,0.267261)"
       gradientUnits="userSpaceOnUse"
       id="radialGradient3063"
       r="7.483315"
       xlink:href="#linearGradient3057" />
    <linearGradient
       id="linearGradient3057">
      <stop
         id="stop3059"
         offset="0.00000000"
         style="stop-color:#282828;stop-opacity:1.0000000;" />
      <stop
         id="stop3061"
         offset="1.0000000"
         style="stop-color:#282828;stop-opacity:0.00000000;" />
    </linearGradient>
    <radialGradient
       cx="8.0178375"
       cy="231.98276"
       fx="8.0178375"
       fy="231.98276"
       gradientTransform="scale(3.741657,0.267261)"
       gradientUnits="userSpaceOnUse"
       id="radialGradient3071"
       r="7.483315"
       xlink:href="#linearGradient3057" />
    <linearGradient
       id="linearGradient3510">
      <stop
         id="stop3512"
         offset="0.00000000"
         style="stop-color:#282828;stop-opacity:1.0000000;" />
      <stop
         id="stop3514"
         offset="1.0000000"
         style="stop-color:#282828;stop-opacity:0.00000000;" />
    </linearGradient>
    <radialGradient
       cx="8.0178375"
       cy="231.98276"
       fx="8.0178375"
       fy="231.98276"
       gradientTransform="scale(3.741657,0.267261)"
       gradientUnits="userSpaceOnUse"
       id="radialGradient3069"
       r="7.483315"
       xlink:href="#linearGradient3057" />
    <linearGradient
       id="linearGradient3517">
      <stop
         id="stop3519"
         offset="0.00000000"
         style="stop-color:#282828;stop-opacity:1.0000000;" />
      <stop
         id="stop3521"
         offset="1.0000000"
         style="stop-color:#282828;stop-opacity:0.00000000;" />
    </linearGradient>
    <linearGradient
       gradientTransform="matrix(2.151801,0,0,1.77085,-0.0513035,4.351838)"
       gradientUnits="userSpaceOnUse"
       id="linearGradient2707"
       spreadMethod="reflect"
       x1="29.613848"
       x2="44.723549"
       xlink:href="#linearGradient2701"
       y1="52.608921"
       y2="52.608921" />
    <linearGradient
       id="linearGradient2701">
      <stop
         id="stop2703"
         offset="0.00000000"
         style="stop-color:#a47c44;stop-opacity:1.0000000;" />
      <stop
         id="stop2770"
         offset="0.75000000"
         style="stop-color:#baa363;stop-opacity:1.0000000;" />
      <stop
         id="stop2705"
         offset="1.0000000"
         style="stop-color:#d6c795;stop-opacity:1.0000000;" />
    </linearGradient>
    <linearGradient
       gradientTransform="matrix(2.21879,0,0,1.825981,-0.0513035,-1.012826)"
       gradientUnits="userSpaceOnUse"
       id="linearGradient2732"
       spreadMethod="reflect"
       x1="29.093641"
       x2="29.093641"
       xlink:href="#linearGradient2713"
       y1="46.357063"
       y2="47.295517" />
    <linearGradient
       id="linearGradient2713">
      <stop
         id="stop2715"
         offset="0.00000000"
         style="stop-color:#000000;stop-opacity:1.0000000;" />
      <stop
         id="stop2717"
         offset="1.0000000"
         style="stop-color:#ffffff;stop-opacity:1.0000000;" />
    </linearGradient>
    <linearGradient
       gradientTransform="matrix(2.21879,0,0,1.825981,-0.0513035,-1.012826)"
       gradientUnits="userSpaceOnUse"
       id="linearGradient2736"
       spreadMethod="reflect"
       x1="24.261463"
       x2="24.605862"
       xlink:href="#linearGradient2713"
       y1="44.011002"
       y2="45.887836" />
    <linearGradient
       id="linearGradient3533">
      <stop
         id="stop3535"
         offset="0.00000000"
         style="stop-color:#000000;stop-opacity:1.0000000;" />
      <stop
         id="stop3537"
         offset="1.0000000"
         style="stop-color:#ffffff;stop-opacity:1.0000000;" />
    </linearGradient>
    <linearGradient
       gradientTransform="matrix(2.21879,0,0,1.825981,-0.0513035,-1.012826)"
       gradientUnits="userSpaceOnUse"
       id="linearGradient3086"
       spreadMethod="reflect"
       x1="17.68186"
       x2="17.425413"
       xlink:href="#linearGradient2713"
       y1="60.433849"
       y2="62.779984" />
    <linearGradient
       id="linearGradient3540">
      <stop
         id="stop3542"
         offset="0.00000000"
         style="stop-color:#000000;stop-opacity:1.0000000;" />
      <stop
         id="stop3544"
         offset="1.0000000"
         style="stop-color:#ffffff;stop-opacity:1.0000000;" />
    </linearGradient>
    <radialGradient
       cx="20.36058"
       cy="22.546398"
       fx="20.36058"
       fy="22.546396"
       gradientTransform="matrix(0.433337,0,0,1.434961,6.40989,-0.113137)"
       gradientUnits="userSpaceOnUse"
       id="radialGradient2817"
       r="15.156592"
       xlink:href="#linearGradient2780" />
    <linearGradient
       id="linearGradient3547">
      <stop
         id="stop3549"
         offset="0.00000000"
         style="stop-color:#ffffff;stop-opacity:1.0000000;" />
      <stop
         id="stop3551"
         offset="1.0000000"
         style="stop-color:#ffffff;stop-opacity:0.00000000;" />
    </linearGradient>
    <radialGradient
       cx="20.36058"
       cy="22.546398"
       fx="20.36058"
       fy="22.546396"
       gradientTransform="matrix(0.500069,0,0,1.675192,5.00297,-5.108149)"
       gradientUnits="userSpaceOnUse"
       id="radialGradient2819"
       r="15.156592"
       xlink:href="#linearGradient2780" />
    <linearGradient
       id="linearGradient3554">
      <stop
         id="stop3556"
         offset="0.00000000"
         style="stop-color:#ffffff;stop-opacity:1.0000000;" />
      <stop
         id="stop3558"
         offset="1.0000000"
         style="stop-color:#ffffff;stop-opacity:0.00000000;" />
    </linearGradient>
    <radialGradient
       cx="20.36058"
       cy="22.546398"
       fx="20.36058"
       fy="22.546396"
       gradientTransform="matrix(0.621397,0,0,1.882058,2.388831,-9.409409)"
       gradientUnits="userSpaceOnUse"
       id="radialGradient2821"
       r="15.156592"
       xlink:href="#linearGradient2780" />
    <linearGradient
       id="linearGradient3561">
      <stop
         id="stop3563"
         offset="0.00000000"
         style="stop-color:#ffffff;stop-opacity:1.0000000;" />
      <stop
         id="stop3565"
         offset="1.0000000"
         style="stop-color:#ffffff;stop-opacity:0.00000000;" />
    </linearGradient>
    <radialGradient
       cx="20.36058"
       cy="22.546398"
       fx="20.36058"
       fy="22.546396"
       gradientTransform="matrix(0.433337,0,0,1.434961,6.40989,-0.113137)"
       gradientUnits="userSpaceOnUse"
       id="radialGradient2811"
       r="15.156592"
       xlink:href="#linearGradient2780" />
    <linearGradient
       id="linearGradient3568">
      <stop
         id="stop3570"
         offset="0.00000000"
         style="stop-color:#ffffff;stop-opacity:1.0000000;" />
      <stop
         id="stop3572"
         offset="1.0000000"
         style="stop-color:#ffffff;stop-opacity:0.00000000;" />
    </linearGradient>
    <radialGradient
       cx="20.36058"
       cy="22.546398"
       fx="20.36058"
       fy="22.546396"
       gradientTransform="matrix(0.500069,0,0,1.675192,5.00297,-5.108149)"
       gradientUnits="userSpaceOnUse"
       id="radialGradient2813"
       r="15.156592"
       xlink:href="#linearGradient2780" />
    <linearGradient
       id="linearGradient3575">
      <stop
         id="stop3577"
         offset="0.00000000"
         style="stop-color:#ffffff;stop-opacity:1.0000000;" />
      <stop
         id="stop3579"
         offset="1.0000000"
         style="stop-color:#ffffff;stop-opacity:0.00000000;" />
    </linearGradient>
    <radialGradient
       cx="20.36058"
       cy="22.546398"
       fx="20.36058"
       fy="22.546396"
       gradientTransform="matrix(0.621397,0,0,1.882058,2.388831,-9.409409)"
       gradientUnits="userSpaceOnUse"
       id="radialGradient2815"
       r="15.156592"
       xlink:href="#linearGradient2780" />
    <linearGradient
       id="linearGradient3582">
      <stop
         id="stop3584"
         offset="0.00000000"
         style="stop-color:#ffffff;stop-opacity:1.0000000;" />
      <stop
         id="stop3586"
         offset="1.0000000"
         style="stop-color:#ffffff;stop-opacity:0.00000000;" />
    </linearGradient>
    <linearGradient
       gradientTransform="matrix(2.136116,0,0,1.825981,2.348697,-1.012826)"
       gradientUnits="userSpaceOnUse"
       id="linearGradient3080"
       spreadMethod="pad"
       x1="26.974447"
       x2="26.974447"
       xlink:href="#linearGradient2780"
       y1="68.680031"
       y2="44.981197" />
    <linearGradient
       id="linearGradient3589">
      <stop
         id="stop3591"
         offset="0.00000000"
         style="stop-color:#ffffff;stop-opacity:1.0000000;" />
      <stop
         id="stop3593"
         offset="1.0000000"
         style="stop-color:#ffffff;stop-opacity:0.00000000;" />
    </linearGradient>
    <inkscape:perspective
       id="perspective3960"
       inkscape:persp3d-origin="0.5 : 0.33333333 : 1"
       inkscape:vp_z="1 : 0.5 : 1"
       inkscape:vp_y="0 : 1000 : 0"
       inkscape:vp_x="0 : 0.5 : 1"
       sodipodi:type="inkscape:persp3d" />
    <linearGradient
       gradientTransform="matrix(76.1966,76.1971,76.1971,-76.1966,-14386.603,54725)"
       gradientUnits="userSpaceOnUse"
       id="XMLID_4_"
       x1="-265.1792"
       x2="-263.246"
       y1="453.61279"
       y2="453.61279">
      <stop
         id="stop12"
         offset="0"
         style="stop-color:#FFFFFF" />
      <stop
         id="stop14"
         offset="1"
         style="stop-color:#000000" />
    </linearGradient>
    <linearGradient
       gradientUnits="userSpaceOnUse"
       id="XMLID_5_"
       x1="0.72359997"
       x2="105.4087"
       y1="94.899902"
       y2="94.899902">
      <stop
         id="stop29"
         offset="0"
         style="stop-color:#E3E3E3" />
      <stop
         id="stop31"
         offset="0.2719"
         style="stop-color:#E0E0E0" />
      <stop
         id="stop33"
         offset="0.482"
         style="stop-color:#D6D6D6" />
      <stop
         id="stop35"
         offset="0.6715"
         style="stop-color:#C6C6C6" />
      <stop
         id="stop37"
         offset="0.8477"
         style="stop-color:#AFAFAF" />
      <stop
         id="stop39"
         offset="1"
         style="stop-color:#949494" />
    </linearGradient>
    <linearGradient
       gradientTransform="matrix(71.3323,210.6647,210.6647,-71.3323,-78139.844,86876.625)"
       gradientUnits="userSpaceOnUse"
       id="XMLID_6_"
       x1="-257.272"
       x2="-255.3261"
       y1="458.13229"
       y2="458.13229">
      <stop
         id="stop52"
         offset="0"
         style="stop-color:#FFFFFF" />
      <stop
         id="stop54"
         offset="1"
         style="stop-color:#000000" />
    </linearGradient>
  </defs>
  <path
     id="path3282"
     style="fill:#e04a29;fill-opacity:1;fill-rule:evenodd;stroke:#000000;stroke-width:2;stroke-linecap:butt;stroke-miterlimit:4;stroke-opacity:1;stroke-dashoffset:0"
     d="m 1,1 3.947716,165.83192 c 2.81979,118.45119 206.409384,118.45119 209.229184,0 L 218.12462,1 1,1 z" />
  <metadata
     id="metadata2834">
    <rdf:RDF>
      <cc:Work>
        <dc:format>image/svg+xml</dc:format>
        <dc:type
           rdf:resource="http://purl.org/dc/dcmitype/StillImage" />
        <cc:license
           rdf:resource="http://creativecommons.org/licenses/publicdomain/" />
        <dc:publisher>
          <cc:Agent
             rdf:about="http://openclipart.org/">
            <dc:title>Open Clip Art Library</dc:title>
          </cc:Agent>
        </dc:publisher>
        <dc:title></dc:title>
        <dc:date>2007-12-16T09:33:34</dc:date>
        <dc:description>Coat of arms of Dinhard, Zürich, Switzerland</dc:description>
        <dc:source>http://openclipart.org/detail/10030/dinhard---coat-of-arms-by-wipp-10030</dc:source>
        <dc:creator>
          <cc:Agent>
            <dc:title>wipp</dc:title>
          </cc:Agent>
        </dc:creator>
        <dc:subject>
          <rdf:Bag>
            <rdf:li>clip art</rdf:li>
            <rdf:li>clipart</rdf:li>
            <rdf:li>coat of arms</rdf:li>
            <rdf:li>crest</rdf:li>
            <rdf:li>flag</rdf:li>
            <rdf:li>image</rdf:li>
            <rdf:li>key</rdf:li>
            <rdf:li>media</rdf:li>
            <rdf:li>png</rdf:li>
            <rdf:li>public domain</rdf:li>
            <rdf:li>svg</rdf:li>
            <rdf:li>swiss</rdf:li>
          </rdf:Bag>
        </dc:subject>
      </cc:Work>
      <cc:License
         rdf:about="http://creativecommons.org/licenses/publicdomain/">
        <cc:permits
           rdf:resource="http://creativecommons.org/ns#Reproduction" />
        <cc:permits
           rdf:resource="http://creativecommons.org/ns#Distribution" />
        <cc:permits
           rdf:resource="http://creativecommons.org/ns#DerivativeWorks" />
      </cc:License>
    </rdf:RDF>
  </metadata>
  <g
     style="overflow:visible"
     id="g3"
     transform="matrix(1.2892526,-0.01128208,0.01125283,1.2859101,27.583947,19.506857)">
    <path
       d="m 54.226,60.589 c 0,-1.053 -1.431,-1.005 -2.129,-0.782 -0.098,1.206 1.23,0.945 -0.016,2.736 1.09,-0.29 1.805,-0.942 2.145,-1.954"
       id="path5"
       style="fill:#e0c200" />
    <path
       d="m 33.138,37.153 c 0,-7.191 1.513,-16.145 8.805,-19.506 4.812,-2.221 12.889,-2.043 18.06,-1.019 14.688,2.908 12.351,21.808 12.351,33.048 0,5.052 -1.43,6.342 3.678,6.342 1.207,0 13.948,0.145 13.948,-0.137 0,-10.072 1.508,-21.463 -0.748,-31.356 -7.454,-32.7 -65.471,-32.7 -72.925,0 -2.255,9.893 -0.748,21.284 -0.748,31.356 0,0.282 11.502,0.137 12.555,0.137 6.132,0 5.024,-0.204 5.024,-6.342 0,-4.174 0,-8.349 0,-12.523"
       id="path7"
       style="fill:#c6c1c4" />
    <path
       d="m 71.004,19.749 c -4.309,-6.366 -8.998,-6.342 -16.148,-5.766 -7.033,0.565 -15.649,0.722 -19.598,7.632 -3.023,5.289 -3.723,11.251 -4.255,17.166 -0.286,3.165 -0.549,6.359 -1.099,9.491 -0.698,3.965 -3.422,3.595 -5.905,5.755 3.23,0.022 6.462,0.045 9.692,0.068 0,-7.449 -0.46,-15.036 0.082,-22.467 1.001,-13.749 13.188,-17.053 25.012,-15.347 13.6,1.961 13.826,14.454 13.826,25.391 0,4.086 0,8.173 0,12.263 0,0.649 8.126,4.51 8.126,-0.419 -6.238,0.09 -6.381,-9.803 -6.364,-14.02 0.031,-7.567 1.011,-12.787 -3.369,-19.747"
       id="path9"
       style="fill:#a7a2a5" />
    <linearGradient
       gradientTransform="matrix(76.1966,76.1971,76.1971,-76.1966,-14386.603,54725)"
       gradientUnits="userSpaceOnUse"
       id="linearGradient3981"
       x1="-265.1792"
       x2="-263.246"
       y1="453.61279"
       y2="453.61279">
      <stop
         id="stop3983"
         offset="0"
         style="stop-color:#FFFFFF" />
      <stop
         id="stop3985"
         offset="1"
         style="stop-color:#000000" />
    </linearGradient>
    <path
       d="m 46.957,0.296 c -17.221,0 -31.408,14.061 -31.408,31.267 0,3.92 -1.706,24.669 1.515,24.669 5.384,0 10.768,0 16.153,0 1.538,0 0.702,-11.032 0.702,-12.752 0,-12.626 0.763,-26.979 16.741,-26.979 5.863,0 12.176,-0.556 16.637,4.054 4.821,4.98 5.051,12.383 5.051,18.896 0,5.373 0,10.749 0,16.125 0,1.437 11.431,0.656 13.148,0.656 5,0 5.262,0.977 5.262,-3.93 0,-6.138 0,-12.275 0,-18.411 C 90.758,18.269 81.979,4.346 65.94,0.978 59.819,-0.309 53.176,0.296 46.957,0.296 M 16.335,31.067 c 0,-35.103 57.063,-41.588 70.787,-12.669 4.96,10.452 2.85,24.469 2.85,35.707 0,2.994 -8.284,1.441 -10.809,1.441 -7.057,0 -6.03,-0.088 -6.03,-7.105 0,-11.897 1.698,-31.026 -14.49,-32.541 -5.049,-0.472 -11.801,-0.839 -16.463,1.305 -7.506,3.453 -9.051,12.604 -9.051,19.999 0,5.163 0,10.325 0,15.487 0,5.119 -6.366,2.855 -10.775,2.855 -5.779,0 -6.018,0.969 -6.018,-4.75 0,-6.174 0,-12.345 0,-18.518 -10e-4,-0.402 -10e-4,-0.807 -10e-4,-1.211"
       id="path16"
       style="fill:url(#XMLID_4_)" />
    <path
       d="m 73.629,8.222 c 2.229,7.62 -11.211,-0.583 -14.771,-1 C 53.187,6.558 47.166,8.073 41.782,9.727 39.026,10.572 34.637,13.049 31.651,12.404 29.591,11.958 31.312,8.816 32.145,8.016 35.41,4.893 40.63,3.671 44.95,3.105 49.96,2.449 71.5,0.936 73.629,8.222"
       id="path18"
       style="fill:#a7a2a5" />
    <path
       d="m 19.602,29.365 c -0.799,5.019 -0.494,10.472 -0.185,15.522 0.078,1.272 1.99,8.833 3.224,3.85 1.185,-4.778 0.082,-10.411 -0.303,-15.236 -0.136,-1.717 1.444,-14.826 2.407,-14.368 -2.612,-1.242 -4.953,9.042 -5.143,10.232"
       id="path20"
       style="fill:#e0dbde" />
    <path
       d="m 70.444,16.572 c 1.735,1.637 3.72,3.768 4.501,6.083 0.896,2.647 -1.406,3.516 -2.826,1.314 -1.628,-2.522 -2.642,-5.784 -5.052,-7.711 -0.604,-0.483 -5.793,-2.996 -5.659,-3.751 0.421,-2.378 8.544,3.602 9.036,4.065"
       id="path22"
       style="fill:#e0dbde" />
    <path
       d="M 57.427,3.357 C 56.767,4.79 53.989,4.368 52.787,4.452 48.273,4.765 43.814,5.894 39.878,8.164 38.245,9.107 29.248,17.69 27.471,16.278 21.854,11.816 34.439,5.333 36.808,4.508 38.169,4.036 58.507,1.018 57.427,3.357"
       id="path24"
       style="fill:#e0dbde" />
    <path
       d="m 83.812,15.14 c 1.838,3.156 8.382,17.824 3.283,20.544 -2.158,1.152 -3.802,-12.386 -4.39,-13.997 -1.42,-3.888 -3.267,-6.62 -6.901,-8.701 -1.828,-1.048 -6.296,-2.032 -7.284,-4.078 -1.542,-3.186 5.436,-2.744 6.706,-2.127 3.501,1.696 6.644,5.02 8.586,8.359"
       id="path26"
       style="fill:#e0dbde" />
    <linearGradient
       gradientUnits="userSpaceOnUse"
       id="linearGradient3993"
       x1="0.72359997"
       x2="105.4087"
       y1="94.899902"
       y2="94.899902">
      <stop
         id="stop3995"
         offset="0"
         style="stop-color:#E3E3E3" />
      <stop
         id="stop3997"
         offset="0.2719"
         style="stop-color:#E0E0E0" />
      <stop
         id="stop3999"
         offset="0.482"
         style="stop-color:#D6D6D6" />
      <stop
         id="stop4001"
         offset="0.6715"
         style="stop-color:#C6C6C6" />
      <stop
         id="stop4003"
         offset="0.8477"
         style="stop-color:#AFAFAF" />
      <stop
         id="stop4005"
         offset="1"
         style="stop-color:#949494" />
    </linearGradient>
    <path
       d="m 105.409,118.385 c 0,15.413 -16.64,17.285 -28.548,17.285 -11.855,0 -23.713,0 -35.568,0 -10.034,0 -22.021,1.399 -31.291,-2.961 -11.309,-5.317 -9.104,-18.157 -9.104,-28.483 0,-10.355 -0.411,-20.803 0.091,-31.147 0.65,-13.355 6.859,-19.163 19.813,-19.163 21.951,0 43.899,0 65.849,0 16.465,0 18.758,11.972 18.758,26.112 0,12.785 0,25.573 0,38.357"
       id="path41"
       style="fill:url(#XMLID_5_)" />
    <path
       d="m 93.315,105.943 c 3.936,0.198 1.277,5.294 0.11,6.925 -4.313,6.031 -11.52,9.919 -18.354,12.342 -12.056,4.278 -25.356,4.493 -37.895,2.585 -6.986,-1.062 -23.845,-3.47 -26.46,-11.912 -3.07,-9.903 15.146,-4.348 18.325,-3.311 12.506,4.095 24.118,6.495 37.355,5.065 6.829,-0.738 13.892,-2.391 19.311,-6.844 2.235,-1.835 4.385,-5.015 7.608,-4.85"
       id="path43"
       style="fill:#f0eaed" />
    <path
       d="m 99.287,87.777 c 0,3.845 0.869,12.984 -2.857,15.828 -2.16,1.648 -3.891,-1.244 -4.437,-2.982 -4.168,-13.252 3.166,-27.704 -10.369,-37.32 -1.664,-1.183 -5.361,-2.269 -6.439,-4.051 -1.072,-1.77 5.768,-2.223 6.468,-2.157 14.149,1.327 17.634,19.403 17.634,30.682"
       id="path45"
       style="fill:#a39fa2" />
    <path
       d="m 11.411,71.828 c -1.618,7.799 -2.135,16.846 0.975,24.362 2.217,5.357 9.761,11.619 15.551,6.964 8.229,-6.619 1.343,-26.763 13.71,-29.568 6.748,-1.529 14.391,-0.925 20.197,-5.429 3.697,-2.871 1.776,-6.125 -1.864,-7.799 -12.453,-5.733 -44.893,-6.232 -48.569,11.47"
       id="path47"
       style="fill:#f0eaed" />
    <path
       d="m 8.944,125.77 c 0,-12.504 0,-25.009 0,-37.512 0,-13.287 -0.835,-31.652 17.049,-31.652 24.266,0 48.531,0 72.797,0 -4.624,-3.315 -10.738,-2.69 -16.143,-2.69 -7.71,0 -15.418,0 -23.125,0 -13.978,0 -27.953,0 -41.929,0 -19.096,0 -16.697,20.827 -16.697,34.501 0,12.661 -4.989,37.841 9.31,44.387 -0.894,-2.229 -1.262,-4.637 -1.262,-7.034"
       id="path49"
       style="fill:#cbc6c9" />
    <linearGradient
       gradientTransform="matrix(71.3323,210.6647,210.6647,-71.3323,-78139.844,86876.625)"
       gradientUnits="userSpaceOnUse"
       id="linearGradient4012"
       x1="-257.272"
       x2="-255.3261"
       y1="458.13229"
       y2="458.13229">
      <stop
         id="stop4014"
         offset="0"
         style="stop-color:#FFFFFF" />
      <stop
         id="stop4016"
         offset="1"
         style="stop-color:#000000" />
    </linearGradient>
    <path
       d="m 88.9,53.916 c -20.378,0 -40.756,0 -61.133,0 -8.208,0 -19.399,-1.683 -24.037,6.841 -4.793,8.811 -2.833,22.456 -2.833,32.245 0,9.338 -2.261,22.104 0.914,31.144 4.241,12.072 19.888,11.524 30.436,11.524 12.333,0 24.664,0 36.996,0 10.271,0 23.348,1.55 31.484,-5.854 8.686,-7.904 4.682,-29.598 4.682,-39.911 0,-13.583 2.809,-35.989 -16.509,-35.989 m 13.303,55.751 c 0,27.738 -41.021,20.824 -59.226,20.824 -9.389,0 -20.903,1.438 -29.651,-2.486 C 1.25,122.583 3.113,108.301 3.113,97.347 c 0,-10.047 -1.796,-22.746 1.3,-32.5 3.621,-11.405 15.835,-10.13 25.449,-10.13 12.657,0 25.316,0 37.975,0 8.737,0 21.497,-1.843 28.666,3.878 6.712,5.359 5.235,15.841 5.336,23.53 0.122,9.181 0.243,18.361 0.364,27.542"
       id="path56"
       style="fill:url(#XMLID_6_)" />
    <path
       d="M 17.163,53.019 C 0.91,53.019 0,68.341 0,80.947 c 0,11.563 0,23.124 0,34.688 0,26.506 33.945,20.934 52.337,20.934 17.739,0 53.969,5.964 53.969,-20.131 0,-11.486 0,-22.975 0,-34.462 0,-10.793 0.519,-26.083 -13.001,-28.582 C 81.048,51.131 67.034,53.02 54.661,53.02 42.162,53.019 29.662,53.019 17.163,53.019 m -15.37,65.366 c 0,-9.988 0,-19.978 0,-29.968 0,-9.304 -2.417,-24.493 5.697,-30.864 5.762,-4.521 17.227,-2.741 24.085,-2.741 12.909,0 25.817,0 38.726,0 7.469,0 16.938,-1.429 24.254,0.729 11.724,3.453 9.957,19.077 9.957,28.776 0,11.113 0,22.225 0,33.341 0,14.301 -14.04,17.115 -25.705,17.115 -13.916,0 -27.83,0 -41.745,0 -12.74,0.001 -35.269,1.668 -35.269,-16.388"
       id="path58"
       style="fill:#6a6568" />
  </g>
  <g
     id="g4211-4"
     transform="matrix(-0.5951074,-0.81273257,-0.78954895,0.55468555,849.48605,499.86995)">
    <g
       id="g3189"
       transform="matrix(1.2181241,8.9200423e-4,8.9200423e-4,1.2718463,-155.14362,-145.07834)">
      <path
         inkscape:connector-curvature="0"
         d="m 678.73948,400.9253 c 0.10517,4.09879 -3.20979,8.08083 -7.4505,8.56346 -3.42032,0.45829 -6.99569,-1.35993 -8.57038,-4.34725 -1.84518,-3.30182 -1.28981,-7.75029 1.50035,-10.39946 2.26565,-2.25022 5.91888,-3.11286 8.94598,-1.90919 3.17267,1.18345 5.43031,4.28734 5.56024,7.58437 0.01,0.16918 0.0145,0.33863 0.0143,0.50807 z m 8.47119,-38.79275 c -9.7257,0.0685 -19.44655,4.20668 -26.28594,11.375 -12.2513,12.27526 -14.68109,32.88816 -6.57911,48.1875 6.91425,13.84205 22.5984,22.24852 37.61662,20.125 13.3149,-1.59914 24.54392,-11.48718 29.69733,-23.9375 l 9.53361,5.46875 c 2.79144,1.74168 4.35607,-0.44379 4.35561,-3 l -0.18276,-10.21875 10.84334,0.25 7.37102,6.9375 9.59453,-9.71498 8.77213,8.37123 6.48772,0 8.98535,-9 6.50495,5.49864 8.27817,-0.34752 7.18167,-6.90248 7.73254,-7.12364 c -1.31156,-4.36846 -5.04873,-7.06971 -11.90939,-10.0862 l -70.35983,0.55495 -0.42642,-7.78125 c -0.0335,-2.77651 -3.3696,-3.94462 -5.5435,-2.5 l -7.91929,6.46875 c -4.16904,-9.04068 -11.57065,-16.51467 -20.74245,-20.125 -4.15363,-1.74292 -8.58513,-2.53112 -13.0059,-2.5 z"
         style="fill:url(#linearGradient3193);fill-opacity:1;stroke:#000000;stroke-width:2;stroke-linecap:round;stroke-linejoin:round;stroke-miterlimit:4;stroke-opacity:1;stroke-dasharray:none;stroke-dashoffset:3.00300009"
         id="path4192-0" />
      <path
         style="fill:url(#linearGradient3195);fill-opacity:1;stroke:#000000;stroke-width:1;stroke-linecap:round;stroke-linejoin:round;stroke-miterlimit:4;stroke-opacity:1;stroke-dasharray:none;stroke-dashoffset:3.00300009"
         d="m 718.00255,401.09687 97.1069,-1.19677 -4.5477,3.35094 -81.85871,1.19677 z"
         id="path4201-5"
         inkscape:connector-curvature="0" />
    </g>
  </g>
</svg>
